src/tb/scr1_pipe_ialu_tb/transcript
# //  Questa Sim-64
# //  Version 2021.1 win64 Jan 19 2021
# //
# //  Copyright 1991-2021 Mentor Graphics Corporation
# //  All Rights Reserved.
# //
# //  QuestaSim and its associated documentation contain trade
# //  secrets and commercial or financial information that are the property of
# //  Mentor Graphics Corporation and are privileged, confidential,
# //  and exempt from disclosure under the Freedom of Information Act,
# //  5 U.S.C. Section 552. Furthermore, this information
# //  is prohibited from disclosure under the Trade Secrets Act,
# //  18 U.S.C. Section 1905.
# //
# do questa.do
# 
# #40;5=85 48@5:B>@88 8 181;8>B5:8, 5A;8 ACI5AB2C5B.
# if {[file exists temp_work]} { 
# 	vdel -lib temp_work -all
# }
# 
# !>740=85 181;8>B5:8
# vlib temp_work
# 
# @82O7:0 181;8>B5:8 : work.
# vmap work temp_work
# QuestaSim-64 vmap 2021.1 Lib Mapping Utility 2021.01 Jan 19 2021
# vmap work temp_work 
# Copying C:/questasim64_2021.1/win64/../modelsim.ini to modelsim.ini
# Modifying modelsim.ini
# 
# ><?8;OF8O 8AE>4=8:0 AG5BG8:0.
# vlog ../../core/pipeline/scr1_pipe_ialu.sv +incdir+../../includes
# QuestaSim-64 vlog 2021.1 Compiler 2021.01 Jan 19 2021
# Start time: 19:35:31 on Feb 11,2026
# vlog -reportprogress 300 ../../core/pipeline/scr1_pipe_ialu.sv "+incdir+../../includes" 
# -- Compiling package scr1_pipe_ialu_sv_unit
# -- Compiling module scr1_pipe_ialu
# 
# Top level modules:
# 	scr1_pipe_ialu
# End time: 19:35:31 on Feb 11,2026, Elapsed time: 0:00:00
# Errors: 0, Warnings: 0
#vlog sv/*.sv +incdir+../../includes
# vlog "+incdir+../../includes" \
# 	sv/scr1_pkg.sv \
# 	sv/scr1_pipe_ialu_if.sv \
# 	sv/scr1_pipe_ialu_package.sv \
# 	sv/scr1_pipe_ialu_tb_top.sv 
# QuestaSim-64 vlog 2021.1 Compiler 2021.01 Jan 19 2021
# Start time: 19:35:31 on Feb 11,2026
# vlog -reportprogress 300 "+incdir+../../includes" sv/scr1_pkg.sv sv/scr1_pipe_ialu_if.sv sv/scr1_pipe_ialu_package.sv sv/scr1_pipe_ialu_tb_top.sv 
# -- Compiling package scr1_pkg
# -- Compiling package scr1_pipe_ialu_if_sv_unit
# -- Importing package scr1_pkg
# -- Compiling interface scr1_pipe_ialu_if
# -- Compiling package scr1_pipe_ialu_package
# -- Importing package mtiUvm.uvm_pkg (uvm-1.1d Built-in)
# ** Note: (vlog-2286) sv/scr1_pipe_ialu_package.sv(9): Using implicit +incdir+C:/questasim64_2021.1/uvm-1.1d/../verilog_src/uvm-1.1d/src from import uvm_pkg
# -- Compiling package scr1_pipe_ialu_tb_top_sv_unit
# -- Compiling module scr1_pipe_ialu_tb_top
# -- Importing package scr1_pipe_ialu_package
# 
# Top level modules:
# 	scr1_pipe_ialu_tb_top
# End time: 19:35:31 on Feb 11,2026, Elapsed time: 0:00:00
# Errors: 0, Warnings: 0
# 
# 
# 0?CA: A8<C;OF88
# vsim -gui work.scr1_pipe_ialu_tb_top -voptargs=+acc -coverage -voptargs="+cover=sb+/scr1_pipe_ialu_tb_top/dut"
# vsim -gui work.scr1_pipe_ialu_tb_top -voptargs="+acc" -coverage -voptargs=""+cover=sb+/scr1_pipe_ialu_tb_top/dut"" 
# Start time: 19:35:31 on Feb 11,2026
# ** Note: (vsim-3812) Design is being optimized...
# ** Note: (vopt-143) Recognized 1 FSM in module "scr1_pipe_ialu(fast)".
# Loading sv_std.std
# Loading work.scr1_pipe_ialu_if(fast)
# Loading mtiUvm.uvm_pkg(fast)
# Loading work.scr1_pkg(fast)
# Loading work.scr1_pipe_ialu_package(fast)
# Loading mtiUvm.questa_uvm_pkg(fast)
# Loading work.scr1_pipe_ialu_tb_top_sv_unit(fast)
# Loading work.scr1_pipe_ialu_tb_top(fast)
# Loading work.scr1_pipe_ialu_if_sv_unit(fast)
# Loading work.scr1_pipe_ialu_if(fast__2)
# Loading work.scr1_pipe_ialu_sv_unit(fast)
# Loading work.scr1_pipe_ialu(fast)
# Loading C:/questasim64_2021.1/uvm-1.1d\win64\uvm_dpi.dll
#vsim -gui work.scr1_pipe_ialu_tb_top -voptargs=+acc
# 
# 
# >102;5=85 A83=0;>2 2 >:=> 2@5<5==KE 4803@0<
# add wave sim:/scr1_pipe_ialu_tb_top/scr1_pipe_ialu_if_h/*
#add wave *
# 
# 0?CA: 
# run -a
# ----------------------------------------------------------------
# UVM-1.1d
# (C) 2007-2013 Mentor Graphics Corporation
# (C) 2007-2013 Cadence Design Systems, Inc.
# (C) 2006-2013 Synopsys, Inc.
# (C) 2011-2013 Cypress Semiconductor Corp.
# ----------------------------------------------------------------
# 
#   ***********       IMPORTANT RELEASE NOTES         ************
# 
#   You are using a version of the UVM library that has been compiled
#   with `UVM_NO_DEPRECATED undefined.
#   See http://www.eda.org/svdb/view.php?id=3313 for more details.
# 
#   You are using a version of the UVM library that has been compiled
#   with `UVM_OBJECT_MUST_HAVE_CONSTRUCTOR undefined.
#   See http://www.eda.org/svdb/view.php?id=3770 for more details.
# 
#       (Specify +UVM_NO_RELNOTES to turn off this notice)
# 
# UVM_INFO verilog_src/questa_uvm_pkg-1.2/src/questa_uvm_pkg.sv(277) @ 0: reporter [Questa UVM] QUESTA_UVM-1.2.3
# UVM_INFO verilog_src/questa_uvm_pkg-1.2/src/questa_uvm_pkg.sv(278) @ 0: reporter [Questa UVM]  questa_uvm::init(+struct)
# UVM_INFO @ 0: reporter [RNTST] Running test scr1_pipe_ialu_test_default...
# UVM_INFO sv/scr1_pipe_ialu_scrb.svh(64) @ 5: uvm_test_top.scr1_pipe_ialu_agnt_h.scr1_pipe_ialu_scrb_h [PASS] 
# actual:    main_op1 = 00000000, main_op2 = 00000000, cmd = , main_res = 00000000, cmp_res = 0, addr_op1 = 00000000, addr_op2 = 00000000, addr_res = 00000000
# predicted: main_op1 = 00000000, main_op2 = 00000000, cmd = , main_res = 00000000, cmp_res = 0, addr_op1 = 00000000, addr_op2 = 00000000, addr_res = 00000000
# UVM_INFO sv/scr1_pipe_ialu_scrb.svh(64) @ 15: uvm_test_top.scr1_pipe_ialu_agnt_h.scr1_pipe_ialu_scrb_h [PASS] 
# actual:    main_op1 = e74e3b58, main_op2 = 762b8892, cmd = SCR1_IALU_CMD_SLL, main_res = ed600000, cmp_res = 0, addr_op1 = 2fb2189a, addr_op2 = 0583f1d0, addr_res = 35360a6a
# predicted: main_op1 = e74e3b58, main_op2 = 762b8892, cmd = SCR1_IALU_CMD_SLL, main_res = ed600000, cmp_res = 0, addr_op1 = 2fb2189a, addr_op2 = 0583f1d0, addr_res = 35360a6a
# UVM_INFO sv/scr1_pipe_ialu_scrb.svh(64) @ 335: uvm_test_top.scr1_pipe_ialu_agnt_h.scr1_pipe_ialu_scrb_h [PASS] 
# actual:    main_op1 = eb633565, main_op2 = f34efd0c, cmd = SCR1_IALU_CMD_DIVU, main_res = 00000000, cmp_res = 0, addr_op1 = cf5fa100, addr_op2 = e2c30d9c, addr_res = b222ae9c
# predicted: main_op1 = eb633565, main_op2 = f34efd0c, cmd = SCR1_IALU_CMD_DIVU, main_res = 00000000, cmp_res = 0, addr_op1 = cf5fa100, addr_op2 = e2c30d9c, addr_res = b222ae9c
# UVM_INFO sv/scr1_pipe_ialu_scrb.svh(64) @ 345: uvm_test_top.scr1_pipe_ialu_agnt_h.scr1_pipe_ialu_scrb_h [PASS] 
# actual:    main_op1 = f9e52782, main_op2 = 36d27793, cmd = SCR1_IALU_CMD_OR, main_res = fff77793, cmp_res = 0, addr_op1 = ab0c08a9, addr_op2 = 8090aebc, addr_res = 2b9cb765
# predicted: main_op1 = f9e52782, main_op2 = 36d27793, cmd = SCR1_IALU_CMD_OR, main_res = fff77793, cmp_res = 0, addr_op1 = ab0c08a9, addr_op2 = 8090aebc, addr_res = 2b9cb765
# UVM_INFO sv/scr1_pipe_ialu_scrb.svh(64) @ 355: uvm_test_top.scr1_pipe_ialu_agnt_h.scr1_pipe_ialu_scrb_h [PASS] 
# actual:    main_op1 = 3348a6b7, main_op2 = ddd48bba, cmd = SCR1_IALU_CMD_SUB_LT, main_res = 00000000, cmp_res = 0, addr_op1 = 77ab6e67, addr_op2 = bbf1eec0, addr_res = 339d5d27
# predicted: main_op1 = 3348a6b7, main_op2 = ddd48bba, cmd = SCR1_IALU_CMD_SUB_LT, main_res = 00000000, cmp_res = 0, addr_op1 = 77ab6e67, addr_op2 = bbf1eec0, addr_res = 339d5d27
# UVM_INFO sv/scr1_pipe_ialu_scrb.svh(64) @ 365: uvm_test_top.scr1_pipe_ialu_agnt_h.scr1_pipe_ialu_scrb_h [PASS] 
# actual:    main_op1 = 50391f9e, main_op2 = aeace087, cmd = SCR1_IALU_CMD_MULHU, main_res = 36bd003a, cmp_res = 0, addr_op1 = 1be0d9ae, addr_op2 = 160e74fa, addr_res = 31ef4ea8
# predicted: main_op1 = 50391f9e, main_op2 = aeace087, cmd = SCR1_IALU_CMD_MULHU, main_res = 36bd003a, cmp_res = 0, addr_op1 = 1be0d9ae, addr_op2 = 160e74fa, addr_res = 31ef4ea8
# UVM_INFO sv/scr1_pipe_ialu_scrb.svh(64) @ 375: uvm_test_top.scr1_pipe_ialu_agnt_h.scr1_pipe_ialu_scrb_h [PASS] 
# actual:    main_op1 = 1b96dce1, main_op2 = 9ffc3bd0, cmd = SCR1_IALU_CMD_AND, main_res = 1b9418c0, cmp_res = 0, addr_op1 = d85e0080, addr_op2 = 75f629b1, addr_res = 4e542a31
# predicted: main_op1 = 1b96dce1, main_op2 = 9ffc3bd0, cmd = SCR1_IALU_CMD_AND, main_res = 1b9418c0, cmp_res = 0, addr_op1 = d85e0080, addr_op2 = 75f629b1, addr_res = 4e542a31
# UVM_INFO sv/scr1_pipe_ialu_scrb.svh(64) @ 705: uvm_test_top.scr1_pipe_ialu_agnt_h.scr1_pipe_ialu_scrb_h [PASS] 
# actual:    main_op1 = 10a3f4ec, main_op2 = 166e7837, cmd = SCR1_IALU_CMD_REM, main_res = 10a3f4ec, cmp_res = 0, addr_op1 = e6476e01, addr_op2 = 735107ae, addr_res = 599875af
# predicted: main_op1 = 10a3f4ec, main_op2 = 166e7837, cmd = SCR1_IALU_CMD_REM, main_res = 10a3f4ec, cmp_res = 0, addr_op1 = e6476e01, addr_op2 = 735107ae, addr_res = 599875af
# UVM_INFO sv/scr1_pipe_ialu_scrb.svh(64) @ 715: uvm_test_top.scr1_pipe_ialu_agnt_h.scr1_pipe_ialu_scrb_h [PASS] 
# actual:    main_op1 = 977d24e8, main_op2 = 0b51a7f6, cmd = SCR1_IALU_CMD_SUB_LTU, main_res = 00000000, cmp_res = 0, addr_op1 = 172a1e44, addr_op2 = 9152bb0d, addr_res = a87cd951
# predicted: main_op1 = 977d24e8, main_op2 = 0b51a7f6, cmd = SCR1_IALU_CMD_SUB_LTU, main_res = 00000000, cmp_res = 0, addr_op1 = 172a1e44, addr_op2 = 9152bb0d, addr_res = a87cd951
# UVM_INFO sv/scr1_pipe_ialu_scrb.svh(64) @ 725: uvm_test_top.scr1_pipe_ialu_agnt_h.scr1_pipe_ialu_scrb_h [PASS] 
# actual:    main_op1 = 2add5700, main_op2 = 959f21bf, cmd = SCR1_IALU_CMD_SUB, main_res = 953e3541, cmp_res = 0, addr_op1 = 8b764594, addr_op2 = 803a5ab8, addr_res = 0bb0a04c
# predicted: main_op1 = 2add5700, main_op2 = 959f21bf, cmd = SCR1_IALU_CMD_SUB, main_res = 953e3541, cmp_res = 0, addr_op1 = 8b764594, addr_op2 = 803a5ab8, addr_res = 0bb0a04c
# UVM_INFO sv/scr1_pipe_ialu_scrb.svh(64) @ 735: uvm_test_top.scr1_pipe_ialu_agnt_h.scr1_pipe_ialu_scrb_h [PASS] 
# actual:    main_op1 = 2acfc73c, main_op2 = 3b4e7f2e, cmd = SCR1_IALU_CMD_MULH, main_res = 09eb037e, cmp_res = 0, addr_op1 = 30bdaeee, addr_op2 = c0c66fa4, addr_res = f1841e92
# predicted: main_op1 = 2acfc73c, main_op2 = 3b4e7f2e, cmd = SCR1_IALU_CMD_MULH, main_res = 09eb037e, cmp_res = 0, addr_op1 = 30bdaeee, addr_op2 = c0c66fa4, addr_res = f1841e92
# UVM_INFO sv/scr1_pipe_ialu_scrb.svh(64) @ 1055: uvm_test_top.scr1_pipe_ialu_agnt_h.scr1_pipe_ialu_scrb_h [PASS] 
# actual:    main_op1 = eadf1d89, main_op2 = 78b5372b, cmd = SCR1_IALU_CMD_REMU, main_res = 7229e65e, cmp_res = 0, addr_op1 = ad00390f, addr_op2 = 13e63c92, addr_res = c0e675a1
# predicted: main_op1 = eadf1d89, main_op2 = 78b5372b, cmd = SCR1_IALU_CMD_REMU, main_res = 7229e65e, cmp_res = 0, addr_op1 = ad00390f, addr_op2 = 13e63c92, addr_res = c0e675a1
# UVM_INFO sv/scr1_pipe_ialu_scrb.svh(64) @ 1065: uvm_test_top.scr1_pipe_ialu_agnt_h.scr1_pipe_ialu_scrb_h [PASS] 
# actual:    main_op1 = b92240bf, main_op2 = 03f95a13, cmd = SCR1_IALU_CMD_SLL, main_res = 05f80000, cmp_res = 0, addr_op1 = 7a507962, addr_op2 = 27d401c9, addr_res = a2247b2b
# predicted: main_op1 = b92240bf, main_op2 = 03f95a13, cmd = SCR1_IALU_CMD_SLL, main_res = 05f80000, cmp_res = 0, addr_op1 = 7a507962, addr_op2 = 27d401c9, addr_res = a2247b2b
# UVM_INFO sv/scr1_pipe_ialu_scrb.svh(64) @ 1075: uvm_test_top.scr1_pipe_ialu_agnt_h.scr1_pipe_ialu_scrb_h [PASS] 
# actual:    main_op1 = c131cb9a, main_op2 = 7352c626, cmd = SCR1_IALU_CMD_SUB, main_res = 4ddf0574, cmp_res = 0, addr_op1 = 964f6616, addr_op2 = 6e8d2bb8, addr_res = 04dc91ce
# predicted: main_op1 = c131cb9a, main_op2 = 7352c626, cmd = SCR1_IALU_CMD_SUB, main_res = 4ddf0574, cmp_res = 0, addr_op1 = 964f6616, addr_op2 = 6e8d2bb8, addr_res = 04dc91ce
# UVM_INFO sv/scr1_pipe_ialu_scrb.svh(64) @ 1395: uvm_test_top.scr1_pipe_ialu_agnt_h.scr1_pipe_ialu_scrb_h [PASS] 
# actual:    main_op1 = 95d7e003, main_op2 = 1648b2a0, cmd = SCR1_IALU_CMD_DIVU, main_res = 00000006, cmp_res = 0, addr_op1 = d21c1e31, addr_op2 = bd4f8310, addr_res = 8f6ba141
# predicted: main_op1 = 95d7e003, main_op2 = 1648b2a0, cmd = SCR1_IALU_CMD_DIVU, main_res = 00000006, cmp_res = 0, addr_op1 = d21c1e31, addr_op2 = bd4f8310, addr_res = 8f6ba141
# UVM_INFO sv/scr1_pipe_ialu_scrb.svh(64) @ 1405: uvm_test_top.scr1_pipe_ialu_agnt_h.scr1_pipe_ialu_scrb_h [PASS] 
# actual:    main_op1 = 29713de8, main_op2 = 4391c09a, cmd = SCR1_IALU_CMD_SUB_GE, main_res = fffffffe, cmp_res = 0, addr_op1 = 1b0d628e, addr_op2 = f229791d, addr_res = 0d36dbab
# predicted: main_op1 = 29713de8, main_op2 = 4391c09a, cmd = SCR1_IALU_CMD_SUB_GE, main_res = fffffffe, cmp_res = 0, addr_op1 = 1b0d628e, addr_op2 = f229791d, addr_res = 0d36dbab
# UVM_INFO sv/scr1_pipe_ialu_scrb.svh(64) @ 1415: uvm_test_top.scr1_pipe_ialu_agnt_h.scr1_pipe_ialu_scrb_h [PASS] 
# actual:    main_op1 = 3c0c49ba, main_op2 = 0c2b0f00, cmd = SCR1_IALU_CMD_SUB_NE, main_res = ffffffff, cmp_res = 1, addr_op1 = 5ed5efc2, addr_op2 = 595ea5ae, addr_res = b8349570
# predicted: main_op1 = 3c0c49ba, main_op2 = 0c2b0f00, cmd = SCR1_IALU_CMD_SUB_NE, main_res = ffffffff, cmp_res = 1, addr_op1 = 5ed5efc2, addr_op2 = 595ea5ae, addr_res = b8349570
# UVM_INFO sv/scr1_pipe_ialu_scrb.svh(64) @ 1425: uvm_test_top.scr1_pipe_ialu_agnt_h.scr1_pipe_ialu_scrb_h [PASS] 
# actual:    main_op1 = 989d8b9c, main_op2 = 3137f0a8, cmd = SCR1_IALU_CMD_SRA, main_res = ff989d8b, cmp_res = 0, addr_op1 = bf989fe3, addr_op2 = aa1b4bd0, addr_res = 69b3ebb3
# predicted: main_op1 = 989d8b9c, main_op2 = 3137f0a8, cmd = SCR1_IALU_CMD_SRA, main_res = ff989d8b, cmp_res = 0, addr_op1 = bf989fe3, addr_op2 = aa1b4bd0, addr_res = 69b3ebb3
# UVM_INFO sv/scr1_pipe_ialu_scrb.svh(64) @ 1435: uvm_test_top.scr1_pipe_ialu_agnt_h.scr1_pipe_ialu_scrb_h [PASS] 
# actual:    main_op1 = 65260c4e, main_op2 = a23db7a6, cmd = SCR1_IALU_CMD_SUB, main_res = c2e854a8, cmp_res = 0, addr_op1 = 64ced727, addr_op2 = ebb701c4, addr_res = 5085d8eb
# predicted: main_op1 = 65260c4e, main_op2 = a23db7a6, cmd = SCR1_IALU_CMD_SUB, main_res = c2e854a8, cmp_res = 0, addr_op1 = 64ced727, addr_op2 = ebb701c4, addr_res = 5085d8eb
# UVM_INFO sv/scr1_pipe_ialu_scrb.svh(64) @ 1445: uvm_test_top.scr1_pipe_ialu_agnt_h.scr1_pipe_ialu_scrb_h [PASS] 
# actual:    main_op1 = 385f3dd0, main_op2 = c0438343, cmd = SCR1_IALU_CMD_XOR, main_res = f81cbe93, cmp_res = 0, addr_op1 = 777c03b7, addr_op2 = b4cbd0a2, addr_res = 2c47d459
# predicted: main_op1 = 385f3dd0, main_op2 = c0438343, cmd = SCR1_IALU_CMD_XOR, main_res = f81cbe93, cmp_res = 0, addr_op1 = 777c03b7, addr_op2 = b4cbd0a2, addr_res = 2c47d459
# UVM_INFO sv/scr1_pipe_ialu_scrb.svh(64) @ 1455: uvm_test_top.scr1_pipe_ialu_agnt_h.scr1_pipe_ialu_scrb_h [PASS] 
# actual:    main_op1 = 39a0346a, main_op2 = dd2791d5, cmd = SCR1_IALU_CMD_SUB_NE, main_res = ffffffff, cmp_res = 1, addr_op1 = e598835e, addr_op2 = 85599ab8, addr_res = 6af21e16
# predicted: main_op1 = 39a0346a, main_op2 = dd2791d5, cmd = SCR1_IALU_CMD_SUB_NE, main_res = ffffffff, cmp_res = 1, addr_op1 = e598835e, addr_op2 = 85599ab8, addr_res = 6af21e16
# UVM_INFO sv/scr1_pipe_ialu_scrb.svh(64) @ 1465: uvm_test_top.scr1_pipe_ialu_agnt_h.scr1_pipe_ialu_scrb_h [PASS] 
# actual:    main_op1 = c1228583, main_op2 = a7e3f77d, cmd = SCR1_IALU_CMD_SRA, main_res = fffffffe, cmp_res = 0, addr_op1 = 95081a58, addr_op2 = 5603ead0, addr_res = eb0c0528
# predicted: main_op1 = c1228583, main_op2 = a7e3f77d, cmd = SCR1_IALU_CMD_SRA, main_res = fffffffe, cmp_res = 0, addr_op1 = 95081a58, addr_op2 = 5603ead0, addr_res = eb0c0528
# UVM_INFO sv/scr1_pipe_ialu_scrb.svh(64) @ 1475: uvm_test_top.scr1_pipe_ialu_agnt_h.scr1_pipe_ialu_scrb_h [PASS] 
# actual:    main_op1 = 9a177d54, main_op2 = 1cf0214f, cmd = SCR1_IALU_CMD_SRA, main_res = ffff342e, cmp_res = 0, addr_op1 = 0dd8c835, addr_op2 = 26a1c761, addr_res = 347a8f96
# predicted: main_op1 = 9a177d54, main_op2 = 1cf0214f, cmd = SCR1_IALU_CMD_SRA, main_res = ffff342e, cmp_res = 0, addr_op1 = 0dd8c835, addr_op2 = 26a1c761, addr_res = 347a8f96
# UVM_INFO sv/scr1_pipe_ialu_scrb.svh(64) @ 1485: uvm_test_top.scr1_pipe_ialu_agnt_h.scr1_pipe_ialu_scrb_h [PASS] 
# actual:    main_op1 = c30756e7, main_op2 = e4f98c30, cmd = SCR1_IALU_CMD_SUB_LT, main_res = 00000001, cmp_res = 1, addr_op1 = f254d166, addr_op2 = 01cf8d51, addr_res = f4245eb7
# predicted: main_op1 = c30756e7, main_op2 = e4f98c30, cmd = SCR1_IALU_CMD_SUB_LT, main_res = 00000001, cmp_res = 1, addr_op1 = f254d166, addr_op2 = 01cf8d51, addr_res = f4245eb7
# UVM_INFO sv/scr1_pipe_ialu_scrb.svh(64) @ 1495: uvm_test_top.scr1_pipe_ialu_agnt_h.scr1_pipe_ialu_scrb_h [PASS] 
# actual:    main_op1 = 00000000, main_op2 = 00000000, cmd = SCR1_IALU_CMD_NONE, main_res = 00000000, cmp_res = 0, addr_op1 = 99cff32a, addr_op2 = c4523797, addr_res = 5e222ac1
# predicted: main_op1 = 00000000, main_op2 = 00000000, cmd = SCR1_IALU_CMD_NONE, main_res = 00000000, cmp_res = 0, addr_op1 = 99cff32a, addr_op2 = c4523797, addr_res = 5e222ac1
# UVM_INFO sv/scr1_pipe_ialu_scrb.svh(64) @ 1505: uvm_test_top.scr1_pipe_ialu_agnt_h.scr1_pipe_ialu_scrb_h [PASS] 
# actual:    main_op1 = b559436a, main_op2 = d0475634, cmd = SCR1_IALU_CMD_MULHSU, main_res = c343b964, cmp_res = 0, addr_op1 = 407985ef, addr_op2 = fb5cbb8b, addr_res = 3bd6417a
# predicted: main_op1 = b559436a, main_op2 = d0475634, cmd = SCR1_IALU_CMD_MULHSU, main_res = c343b964, cmp_res = 0, addr_op1 = 407985ef, addr_op2 = fb5cbb8b, addr_res = 3bd6417a
# UVM_INFO sv/scr1_pipe_ialu_scrb.svh(64) @ 1515: uvm_test_top.scr1_pipe_ialu_agnt_h.scr1_pipe_ialu_scrb_h [PASS] 
# actual:    main_op1 = bfada7dc, main_op2 = 6f6e4490, cmd = SCR1_IALU_CMD_MUL, main_res = 76ccdbc0, cmp_res = 0, addr_op1 = e00a25c4, addr_op2 = 538b1a2a, addr_res = 33953fee
# predicted: main_op1 = bfada7dc, main_op2 = 6f6e4490, cmd = SCR1_IALU_CMD_MUL, main_res = 76ccdbc0, cmp_res = 0, addr_op1 = e00a25c4, addr_op2 = 538b1a2a, addr_res = 33953fee
# UVM_INFO sv/scr1_pipe_ialu_scrb.svh(64) @ 1525: uvm_test_top.scr1_pipe_ialu_agnt_h.scr1_pipe_ialu_scrb_h [PASS] 
# actual:    main_op1 = 70c5d5ae, main_op2 = e55ada6d, cmd = SCR1_IALU_CMD_SUB_LT, main_res = 00000000, cmp_res = 0, addr_op1 = 3fe2ce7c, addr_op2 = 53d92b5d, addr_res = 93bbf9d9
# predicted: main_op1 = 70c5d5ae, main_op2 = e55ada6d, cmd = SCR1_IALU_CMD_SUB_LT, main_res = 00000000, cmp_res = 0, addr_op1 = 3fe2ce7c, addr_op2 = 53d92b5d, addr_res = 93bbf9d9
# UVM_INFO sv/scr1_pipe_ialu_scrb.svh(64) @ 1845: uvm_test_top.scr1_pipe_ialu_agnt_h.scr1_pipe_ialu_scrb_h [PASS] 
# actual:    main_op1 = c6f24722, main_op2 = fc459581, cmd = SCR1_IALU_CMD_DIVU, main_res = 00000000, cmp_res = 0, addr_op1 = 7fa41b6b, addr_op2 = d61616b7, addr_res = 55ba3222
# predicted: main_op1 = c6f24722, main_op2 = fc459581, cmd = SCR1_IALU_CMD_DIVU, main_res = 00000000, cmp_res = 0, addr_op1 = 7fa41b6b, addr_op2 = d61616b7, addr_res = 55ba3222
# UVM_INFO sv/scr1_pipe_ialu_scrb.svh(64) @ 1855: uvm_test_top.scr1_pipe_ialu_agnt_h.scr1_pipe_ialu_scrb_h [PASS] 
# actual:    main_op1 = c5758b1a, main_op2 = a59ee39e, cmd = SCR1_IALU_CMD_SLL, main_res = 80000000, cmp_res = 0, addr_op1 = 2e7452ed, addr_op2 = 36dff942, addr_res = 65544c2f
# predicted: main_op1 = c5758b1a, main_op2 = a59ee39e, cmd = SCR1_IALU_CMD_SLL, main_res = 80000000, cmp_res = 0, addr_op1 = 2e7452ed, addr_op2 = 36dff942, addr_res = 65544c2f
# UVM_INFO sv/scr1_pipe_ialu_scrb.svh(64) @ 1865: uvm_test_top.scr1_pipe_ialu_agnt_h.scr1_pipe_ialu_scrb_h [PASS] 
# actual:    main_op1 = cbbd3ff4, main_op2 = 998beeec, cmd = SCR1_IALU_CMD_OR, main_res = dbbffffc, cmp_res = 0, addr_op1 = 4d5fbe43, addr_op2 = 103c45fe, addr_res = 5d9c0441
# predicted: main_op1 = cbbd3ff4, main_op2 = 998beeec, cmd = SCR1_IALU_CMD_OR, main_res = dbbffffc, cmp_res = 0, addr_op1 = 4d5fbe43, addr_op2 = 103c45fe, addr_res = 5d9c0441
# UVM_INFO sv/scr1_pipe_ialu_scrb.svh(64) @ 2185: uvm_test_top.scr1_pipe_ialu_agnt_h.scr1_pipe_ialu_scrb_h [PASS] 
# actual:    main_op1 = 129737e3, main_op2 = 8fd73970, cmd = SCR1_IALU_CMD_DIVU, main_res = 00000000, cmp_res = 0, addr_op1 = f7ba64b7, addr_op2 = 3d4f538d, addr_res = 3509b844
# predicted: main_op1 = 129737e3, main_op2 = 8fd73970, cmd = SCR1_IALU_CMD_DIVU, main_res = 00000000, cmp_res = 0, addr_op1 = f7ba64b7, addr_op2 = 3d4f538d, addr_res = 3509b844
# UVM_INFO sv/scr1_pipe_ialu_scrb.svh(64) @ 2195: uvm_test_top.scr1_pipe_ialu_agnt_h.scr1_pipe_ialu_scrb_h [PASS] 
# actual:    main_op1 = 78db02bc, main_op2 = 619c9730, cmd = SCR1_IALU_CMD_SUB_LT, main_res = 00000000, cmp_res = 0, addr_op1 = de4a3943, addr_op2 = 0561c25a, addr_res = e3abfb9d
# predicted: main_op1 = 78db02bc, main_op2 = 619c9730, cmd = SCR1_IALU_CMD_SUB_LT, main_res = 00000000, cmp_res = 0, addr_op1 = de4a3943, addr_op2 = 0561c25a, addr_res = e3abfb9d
# UVM_INFO sv/scr1_pipe_ialu_scrb.svh(64) @ 2205: uvm_test_top.scr1_pipe_ialu_agnt_h.scr1_pipe_ialu_scrb_h [PASS] 
# actual:    main_op1 = ad54aecf, main_op2 = 6973166d, cmd = SCR1_IALU_CMD_SUB_LTU, main_res = 00000000, cmp_res = 0, addr_op1 = 99ebe631, addr_op2 = 8648927e, addr_res = 203478af
# predicted: main_op1 = ad54aecf, main_op2 = 6973166d, cmd = SCR1_IALU_CMD_SUB_LTU, main_res = 00000000, cmp_res = 0, addr_op1 = 99ebe631, addr_op2 = 8648927e, addr_res = 203478af
# UVM_INFO sv/scr1_pipe_ialu_scrb.svh(64) @ 2215: uvm_test_top.scr1_pipe_ialu_agnt_h.scr1_pipe_ialu_scrb_h [PASS] 
# actual:    main_op1 = 68b1dd6d, main_op2 = bd6dcc5e, cmd = SCR1_IALU_CMD_SRA, main_res = 00000001, cmp_res = 0, addr_op1 = fd84a4b0, addr_op2 = 0dc717f6, addr_res = 0b4bbca6
# predicted: main_op1 = 68b1dd6d, main_op2 = bd6dcc5e, cmd = SCR1_IALU_CMD_SRA, main_res = 00000001, cmp_res = 0, addr_op1 = fd84a4b0, addr_op2 = 0dc717f6, addr_res = 0b4bbca6
# UVM_INFO sv/scr1_pipe_ialu_scrb.svh(64) @ 2225: uvm_test_top.scr1_pipe_ialu_agnt_h.scr1_pipe_ialu_scrb_h [PASS] 
# actual:    main_op1 = c19e8fd2, main_op2 = 8d1965b8, cmd = SCR1_IALU_CMD_SUB_GEU, main_res = ffffffff, cmp_res = 1, addr_op1 = e96758b1, addr_op2 = e1e043a9, addr_res = cb479c5a
# predicted: main_op1 = c19e8fd2, main_op2 = 8d1965b8, cmd = SCR1_IALU_CMD_SUB_GEU, main_res = ffffffff, cmp_res = 1, addr_op1 = e96758b1, addr_op2 = e1e043a9, addr_res = cb479c5a
# UVM_INFO sv/scr1_pipe_ialu_scrb.svh(64) @ 2235: uvm_test_top.scr1_pipe_ialu_agnt_h.scr1_pipe_ialu_scrb_h [PASS] 
# actual:    main_op1 = b2df05f6, main_op2 = a770cfc8, cmd = SCR1_IALU_CMD_SUB_GEU, main_res = ffffffff, cmp_res = 1, addr_op1 = 40950ca0, addr_op2 = 15d1d358, addr_res = 5666dff8
# predicted: main_op1 = b2df05f6, main_op2 = a770cfc8, cmd = SCR1_IALU_CMD_SUB_GEU, main_res = ffffffff, cmp_res = 1, addr_op1 = 40950ca0, addr_op2 = 15d1d358, addr_res = 5666dff8
# UVM_INFO sv/scr1_pipe_ialu_scrb.svh(64) @ 2245: uvm_test_top.scr1_pipe_ialu_agnt_h.scr1_pipe_ialu_scrb_h [PASS] 
# actual:    main_op1 = 078c2e57, main_op2 = 51fd5360, cmd = SCR1_IALU_CMD_SUB_LTU, main_res = 00000001, cmp_res = 1, addr_op1 = 02a73648, addr_op2 = 0c60b26a, addr_res = 0f07e8b2
# predicted: main_op1 = 078c2e57, main_op2 = 51fd5360, cmd = SCR1_IALU_CMD_SUB_LTU, main_res = 00000001, cmp_res = 1, addr_op1 = 02a73648, addr_op2 = 0c60b26a, addr_res = 0f07e8b2
# UVM_INFO sv/scr1_pipe_ialu_scrb.svh(64) @ 2255: uvm_test_top.scr1_pipe_ialu_agnt_h.scr1_pipe_ialu_scrb_h [PASS] 
# actual:    main_op1 = 4c6890c1, main_op2 = bf54eb47, cmd = SCR1_IALU_CMD_MUL, main_res = ac355087, cmp_res = 0, addr_op1 = fe41da0b, addr_op2 = 6ca73536, addr_res = 6ae90f41
# predicted: main_op1 = 4c6890c1, main_op2 = bf54eb47, cmd = SCR1_IALU_CMD_MUL, main_res = ac355087, cmp_res = 0, addr_op1 = fe41da0b, addr_op2 = 6ca73536, addr_res = 6ae90f41
